name,ra,dec
MAFFEI2,40.47927,59.60423
MRK33,158.13315,54.40098
DDO154,193.52187,27.14963
DDO165,196.60712,67.70724
CARTWHEEL,9.42128,-33.71633
WKK4748,228.64282,-52.98938
TARANTULA,84.65774,-69.09513
2MASS_41.663_21.586,41.6633,21.58594
DWINGELOO1,44.21523,58.91156
MCG+10-03-001,20.10039,58.02693