name,ra,dec
NGC4302,185.42699,14.59776
NGC4312,185.63066,15.53792
NGC4314,185.6335,29.89532
NGC4330,185.82187,11.36798
NGC4365,186.11762,7.31752
NGC4388,186.44508,12.66207
NGC4395,186.45384,33.54675
NGC4429,186.86066,11.10754
NGC4438,186.94022,13.00859
NGC4442,187.01622,9.80362
NGC1317,50.68454,-37.10379
NGC1325,51.10652,-21.54404
NGC1326,50.98499,-36.46466
NGC1332,51.57217,-21.33537
NGC1337,52.02483,-8.38862
NGC1340,52.08195,-31.06818
NGC1350,52.78383,-33.62864
NGC1353,53.0126,-20.81916
NGC1365,53.40191,-36.14066
NGC1367,53.75563,-24.93311
NGC1377,54.16282,-20.90226
NGC4013,179.63091,43.94702
NGC4026,179.85495,50.96169
NGC4036,180.36204,61.8957
NGC4051,180.79036,44.53126
NGC4064,181.04663,18.44345
NGC4088,181.39246,50.53903
NGC4096,181.50484,47.47836
NGC4100,181.53584,49.58231
NGC4102,181.59631,52.71095
NGC4111,181.76303,43.06539
NGC4119,182.04018,10.37872
NGC4125,182.02507,65.17413
NGC4144,182.49417,46.45718
NGC4145,182.50635,39.88386
NGC4151,182.63608,39.40576
NGC4157,182.76819,50.48468
NGC4183,183.32025,43.69827
NGC1809,75.52087,-69.56828
NGC1947,81.69839,-63.76002
NGC1954,83.20146,-14.0628
NGC1961,85.5199,69.37838
NGC1964,83.34065,-21.94577
NGC2090,86.75787,-34.2506
NGC2146,94.65713,78.35702
NGC2207,94.09206,-21.37272
NGC2217,95.41574,-27.23374
NGC2280,101.20464,-27.63861
NGC2283,101.46997,-18.2108
NGC2293,101.9288,-26.75436
NGC628,24.17405,15.78346
NGC660,25.75979,13.64568
NGC672,26.97718,27.43278
NGC674,27.8232,22.35797
NGC676,27.23879,5.90598
NGC678,27.35358,21.9973
NGC693,27.62853,6.14521
NGC720,28.25218,-13.73868
NGC772,29.83159,19.00754
NGC784,30.32055,28.83726