name,ra,dec
CENB,206.70462,-60.40831
OJ287,133.70373,20.10854
3C273,187.27812,2.05233
3C445,335.95673,-2.10381
SN1997AB,147.75089,20.07219
0052+2858,13.70961,29.24649
2MASS_104.263_5.021,104.26571,-5.02215
2MASS_309.449_51.634,309.44861,51.63369
2MASS_109.216_-18.876,109.21249,-18.87382
DENISJ235855.4-033317,359.7308,-3.55455